NBA
…
Draft$Player = str_extract(Draft$Player, "[^\\\\]+")
Past_Players$Player = str_extract(Past_Players$Player, "[^\\\\]+")
Current_Players$Player = str_extract(Current_Players$Player, "[^\\\\]+")

Past_Players$drafted <- 0
Past_Players %>% 
  filter(Player %in% Draft$Player) %>% 
  mutate(drafted = 1) %>% 
  select(Player, drafted)

## # A tibble: 99 x 2
##    Player         drafted
##    <chr>            <dbl>
##  1 Doug McDermott       1
##  2 Buddy Hield          1
##  3 Trae Young           1
##  4 T.J. Warren          1
##  5 Kay Felder           1
##  6 Grayson Allen        1
##  7 Jalen Brunson        1
##  8 Malik Monk           1
##  9 Frank Mason          1
## 10 Ben Bentil           1
## # ... with 89 more rows

Past_Players$drafted[Past_Players$Player %in% Draft$Player] <- 1

Past_Players %>% 
  filter(drafted == 1)

## # A tibble: 99 x 27
##       Rk Player Class Season Pos   School Conf      G    MP    FG   FGA
##    <int> <chr>  <chr> <chr>  <chr> <chr>  <chr> <int> <int> <int> <int>
##  1     2 Doug  SR    2013- F     Creig Big     35  1181   330   627
##  2     3 Buddy SR    2015- G     Oklah Big     37  1309   301   601
##  3     7 Trae  FR    2017- G     Oklah Big     32  1133   261   618
##  4     8 T.J.  SO    2013- F     North ACC      35  1238   342   652
##  5    10 Kay F JR    2015- G     Oakla Hori    35  1286   269   612
##  6    20 Grays SO    2015- G     Duke   ACC      36  1317   239   513
##  7    29 Jalen JR    2017- G     Villa Big     40  1272   270   518
##  8    31 Malik FR    2016- G     Kentu SEC      38  1218   251   558
##  9    32 Frank SR    2016- G     Kansas Big     36  1301   241   492
## 10    43 Ben B SO    2015- F     Provi Big     35  1198   246   533
## # ... with 89 more rows, and 16 more variables: `2P` <int>, `2PA` <int>,
## #   `3P` <int>, `3PA` <int>, FT <int>, FTA <int>, ORB <int>, DRB <int>,
## #   TRB <int>, AST <int>, STL <int>, BLK <int>, TOV <int>, PF <int>,
## #   PTS <int>, drafted <dbl>

Past_Players$PWR5 <- 0
Past_Players %>% 
  filter(Past_Players$Conf == 'ACC'|Past_Players$Conf =='SEC'|Past_Players$Conf == 'Pac-12'|Past_Players$Conf == 'Big Ten'|Past_Players$Conf == 'Big 12') %>% 
  mutate(PWR5 = 1) %>% 
  select(Conf, PWR5)

## # A tibble: 120 x 2
##    Conf     PWR5
##    <chr>   <dbl>
##  1 Big 12      1
##  2 Big 12      1
##  3 ACC         1
##  4 ACC         1
##  5 ACC         1
##  6 SEC         1
##  7 Big 12      1
##  8 Pac-12      1
##  9 Big Ten     1
## 10 ACC         1
## # ... with 110 more rows

Past_Players$PWR5[Past_Players$Conf == 'ACC'|Past_Players$Conf =='SEC'|Past_Players$Conf == 'Pac-12'|Past_Players$Conf == 'Big Ten'|Past_Players$Conf == 'Big 12' ] <- 1

Current_Players$PWR5 <- 0
Current_Players %>% 
  filter(Current_Players$Conf == 'ACC'|Current_Players$Conf =='SEC'|Current_Players$Conf == 'Pac-12'|Current_Players$Conf == 'Big Ten'|Current_Players$Conf == 'Big 12') %>% 
  mutate(PWR5 = 1) %>% 
  select(Conf, PWR5)

## # A tibble: 62 x 2
##    Conf     PWR5
##    <chr>   <dbl>
##  1 Big Ten     1
##  2 ACC         1
##  3 ACC         1
##  4 Big Ten     1
##  5 Big Ten     1
##  6 Big 12      1
##  7 Big 12      1
##  8 SEC         1
##  9 SEC         1
## 10 Big 12      1
## # ... with 52 more rows
…
